CoDA Atypicality Index — CoDA_Atyp_Idx • GMisc
…
    A matrix with the atypicality index or indices.

    References

    Aitchison, J. (1986). The statistical analysis of compositional data. Chapman and Hall.

    Examples

data("Hongite", package = 'compositions')
samp = c(44, 20.4, 13.9, 9.1, 12.6)
CoDA_Atyp_Idx(Hongite)

#> New names:
#> # A tibble: 25 × 2
#>       idx Atypical
#>     <dbl> <chr>   
#>  1 0.712  No      
#>  2 0.0171 No      
#>  3 0.199  No      
#>  4 0.0318 No      
#>  5 0.709  No      
#>  6 0.828  No      
#>  7 0.882  No      
#>  8 0.969  Yes     
#>  9 0.1    No      
#> 10 0.987  Yes     
#> # … with 15 more rows
…
