Hoek-Brown criterion — Hoek_Brown • GMisc
…
#> $Results$phi
#> [1] 40.1
#> 
#> $Results$c
#> [1] 1.45
#> 
#> $Results$phi.h
#> [1] 52.5
#> 
#> $Results$c.h
#> [1] 0.72
#> 
#> 
#> $shear
#> # A tibble: 12,564 x 3
#>     sig.n crit           tau
#>     <dbl> <chr>        <dbl>
#>  1 -0.187 Hoek-Brown   0.001
#>  2 -0.187 Mohr-Coulomb 0    
#>  3 -0.187 Stress level 0    
#>  4 -0.186 Hoek-Brown   0.011
#>  5 -0.186 Mohr-Coulomb 1.29 
#>  6 -0.186 Stress level 0.478
#>  7 -0.185 Hoek-Brown   0.018
#>  8 -0.185 Mohr-Coulomb 1.29 
#>  9 -0.185 Stress level 0.479
#> 10 -0.184 Hoek-Brown   0.024
#> # … with 12,554 more rows
#> 
#> $princ.stress
#> # A tibble: 8,376 x 3
#>     sig.3 crit         sig.1
#>     <dbl> <chr>        <dbl>
#>  1 -0.187 Hoek-Brown   0    
#>  2 -0.187 Mohr-Coulomb 0    
#>  3 -0.186 Hoek-Brown   0.113
#>  4 -0.186 Mohr-Coulomb 5.37 
#>  5 -0.185 Hoek-Brown   0.231
#>  6 -0.185 Mohr-Coulomb 5.38 
#>  7 -0.184 Hoek-Brown   0.323
#>  8 -0.184 Mohr-Coulomb 5.38 
#>  9 -0.183 Hoek-Brown   0.402
#> 10 -0.183 Mohr-Coulomb 5.39 
#> # … with 8,366 more rows
…
